{"posts":{"current_page":1,"data":[{"id":968,"user_id":"0a1722c6-ada9-485e-b507-d986bf5430a3","account_type":"business","source_account_id":"5dc338a8-3e56-434b-8690-be2ff2afd5b8","organization_id":"5dc338a8-3e56-434b-8690-be2ff2afd5b8","title":null,"body":"hi how re y","lat":null,"lng":null,"country":null,"image":null,"created_at":"2026-06-03T07:50:22.000Z","updated_at":"2026-06-03T07:50:22.000Z","background_color":"#FFFFFF","feelings":null,"tagging":null,"promoted":false,"is_promoted":false,"is_sponsored":false,"privacy":"public","is_shared":false,"shared_post_id":null,"clicks":0,"views":11,"is_comment_enable":true,"post_type":"text","status":"active","user":{"id":"0a1722c6-ada9-485e-b507-d986bf5430a3","name":"Adnan Khalil","profile_pic":"profile_pictures/profile_0a1722c6-ada9-485e-b507-d986bf5430a3_1780560375689.jpg","is_verified":true},"media":[],"likes":[{"id":1948,"user_id":"0a1722c6-ada9-485e-b507-d986bf5430a3","post_id":"968","created_at":"2026-06-03T12:50:30.000Z","updated_at":null}],"comments":[],"relevance_score":0.517,"meta":{"type":"post","deepLink":"doctak://post/968","webUrl":"https://doctak.net/posts/968"}},{"id":965,"user_id":"1a6e8910-8864-4911-a988-e74e934fb58b","account_type":"business","source_account_id":"60b68783-94e8-437c-a29a-9534d091b11a","organization_id":"60b68783-94e8-437c-a29a-9534d091b11a","title":null,"body":"","lat":null,"lng":null,"country":null,"image":null,"created_at":"2026-06-03T07:27:22.000Z","updated_at":"2026-06-03T07:27:22.000Z","background_color":"#FFFFFF","feelings":null,"tagging":null,"promoted":false,"is_promoted":false,"is_sponsored":false,"privacy":"public","is_shared":false,"shared_post_id":null,"clicks":0,"views":9,"is_comment_enable":true,"post_type":"photo","status":"active","user":{"id":"1a6e8910-8864-4911-a988-e74e934fb58b","name":"ali khan","profile_pic":"profile_pictures/profile_1a6e8910-8864-4911-a988-e74e934fb58b_1780379975549.jpg","is_verified":false},"media":[{"id":206,"post_id":"965","media_type":"image","media_path":"posts/1780489641376-0f784c92-d2c0-4dbc-9135-70ab49db4cbb.jpeg","original_filename":"images (2).jpeg","file_size":6072,"mime_type":"image/jpeg","created_at":"2026-06-03T07:27:22.000Z","updated_at":"2026-06-03T07:27:22.000Z","user_id":null,"upload_type":null,"status":null}],"likes":[{"id":1946,"user_id":"1a6e8910-8864-4911-a988-e74e934fb58b","post_id":"965","created_at":"2026-06-03T12:27:31.000Z","updated_at":null},{"id":1950,"user_id":"2432432432432","post_id":"965","created_at":"2026-06-04T05:25:51.000Z","updated_at":null}],"comments":[{"id":653,"userId":"0a1722c6-ada9-485e-b507-d986bf5430a3","postId":"965","comment":"hu","createdAt":"2026-06-05T00:15:17.000Z","updatedAt":"2026-06-05T00:15:17.000Z","commenterName":"Adnan Khalil","commenterProfilePic":"profile_pictures/profile_0a1722c6-ada9-485e-b507-d986bf5430a3_1780560375689.jpg","commenterIsVerified":true}],"relevance_score":0.398,"meta":{"type":"post","deepLink":"doctak://post/965","webUrl":"https://doctak.net/posts/965"}},{"id":923,"user_id":"0a1722c6-ada9-485e-b507-d986bf5430a3","account_type":"personal","source_account_id":"0a1722c6-ada9-485e-b507-d986bf5430a3","organization_id":null,"title":null,"body":"hi how are you thank you","lat":null,"lng":null,"country":null,"image":null,"created_at":"2026-05-24T05:28:12.000Z","updated_at":"2026-06-01T10:31:12.000Z","background_color":"#FFFFFF","feelings":null,"tagging":null,"promoted":false,"is_promoted":false,"is_sponsored":false,"privacy":"public","is_shared":false,"shared_post_id":null,"clicks":0,"views":223,"is_comment_enable":true,"post_type":"photo","status":"active","user":{"id":"0a1722c6-ada9-485e-b507-d986bf5430a3","name":"Adnan Khalil","profile_pic":"profile_pictures/profile_0a1722c6-ada9-485e-b507-d986bf5430a3_1780560375689.jpg","is_verified":true},"media":[{"id":198,"post_id":"923","media_type":"image","media_path":"posts/1780309871235-d33a8b4f-5e29-4759-8e6a-e5341c56c4ba.png","original_filename":"Gemini_Generated_Image_o5ziozo5ziozo5zi.png","file_size":1638424,"mime_type":"image/png","created_at":"2026-06-01T05:31:12.000Z","updated_at":"2026-06-01T05:31:12.000Z","user_id":null,"upload_type":null,"status":null}],"likes":[{"id":1952,"user_id":"0a1722c6-ada9-485e-b507-d986bf5430a3","post_id":"923","created_at":"2026-06-04T09:51:41.000Z","updated_at":null},{"id":2006,"user_id":"1a6e8910-8864-4911-a988-e74e934fb58b","post_id":"923","created_at":"2026-06-04T10:04:06.000Z","updated_at":null}],"comments":[{"id":619,"userId":"0a1722c6-ada9-485e-b507-d986bf5430a3","postId":"923","comment":"hekki","createdAt":"2026-05-24T05:28:36.000Z","updatedAt":"2026-05-24T05:28:36.000Z","commenterName":"Adnan Khalil","commenterProfilePic":"profile_pictures/profile_0a1722c6-ada9-485e-b507-d986bf5430a3_1780560375689.jpg","commenterIsVerified":true},{"id":620,"userId":"0a1722c6-ada9-485e-b507-d986bf5430a3","postId":"923","comment":"ij","createdAt":"2026-05-24T05:28:38.000Z","updatedAt":"2026-05-24T05:28:38.000Z","commenterName":"Adnan Khalil","commenterProfilePic":"profile_pictures/profile_0a1722c6-ada9-485e-b507-d986bf5430a3_1780560375689.jpg","commenterIsVerified":true},{"id":621,"userId":"0a1722c6-ada9-485e-b507-d986bf5430a3","postId":"923","comment":"sudgfs","createdAt":"2026-05-24T05:28:39.000Z","updatedAt":"2026-05-24T05:28:39.000Z","commenterName":"Adnan Khalil","commenterProfilePic":"profile_pictures/profile_0a1722c6-ada9-485e-b507-d986bf5430a3_1780560375689.jpg","commenterIsVerified":true},{"id":622,"userId":"0a1722c6-ada9-485e-b507-d986bf5430a3","postId":"923","comment":"jsdhgfsji","createdAt":"2026-05-24T05:28:40.000Z","updatedAt":"2026-05-24T05:28:40.000Z","commenterName":"Adnan Khalil","commenterProfilePic":"profile_pictures/profile_0a1722c6-ada9-485e-b507-d986bf5430a3_1780560375689.jpg","commenterIsVerified":true},{"id":625,"userId":"0a1722c6-ada9-485e-b507-d986bf5430a3","postId":"923","comment":"hello","createdAt":"2026-05-24T08:26:34.000Z","updatedAt":"2026-05-24T08:26:34.000Z","commenterName":"Adnan Khalil","commenterProfilePic":"profile_pictures/profile_0a1722c6-ada9-485e-b507-d986bf5430a3_1780560375689.jpg","commenterIsVerified":true},{"id":623,"userId":"0a1722c6-ada9-485e-b507-d986bf5430a3","postId":"923","comment":"dfgd","createdAt":"2026-05-24T10:44:47.000Z","updatedAt":"2026-05-24T10:44:47.000Z","commenterName":"Adnan Khalil","commenterProfilePic":"profile_pictures/profile_0a1722c6-ada9-485e-b507-d986bf5430a3_1780560375689.jpg","commenterIsVerified":true},{"id":624,"userId":"0a1722c6-ada9-485e-b507-d986bf5430a3","postId":"923","comment":"dfgd","createdAt":"2026-05-24T10:44:51.000Z","updatedAt":"2026-05-24T10:44:51.000Z","commenterName":"Adnan Khalil","commenterProfilePic":"profile_pictures/profile_0a1722c6-ada9-485e-b507-d986bf5430a3_1780560375689.jpg","commenterIsVerified":true}],"relevance_score":0.472,"meta":{"type":"post","deepLink":"doctak://post/923","webUrl":"https://doctak.net/posts/923"}},{"id":967,"user_id":"1a6e8910-8864-4911-a988-e74e934fb58b","account_type":"business","source_account_id":"60b68783-94e8-437c-a29a-9534d091b11a","organization_id":"60b68783-94e8-437c-a29a-9534d091b11a","title":null,"body":"","lat":null,"lng":null,"country":null,"image":null,"created_at":"2026-06-03T07:40:30.000Z","updated_at":"2026-06-03T07:40:30.000Z","background_color":"#FFFFFF","feelings":null,"tagging":null,"promoted":false,"is_promoted":false,"is_sponsored":false,"privacy":"public","is_shared":false,"shared_post_id":null,"clicks":0,"views":13,"is_comment_enable":true,"post_type":"photo","status":"active","user":{"id":"1a6e8910-8864-4911-a988-e74e934fb58b","name":"ali khan","profile_pic":"profile_pictures/profile_1a6e8910-8864-4911-a988-e74e934fb58b_1780379975549.jpg","is_verified":false},"media":[{"id":207,"post_id":"967","media_type":"image","media_path":"posts/1780490428940-05c971b3-3ddc-4e4d-b5c9-6d7a6ba553a1.webp","original_filename":"ImageForNews_836628_17776037209815342.webp","file_size":68276,"mime_type":"image/webp","created_at":"2026-06-03T07:40:30.000Z","updated_at":"2026-06-03T07:40:30.000Z","user_id":null,"upload_type":null,"status":null}],"likes":[{"id":1947,"user_id":"1a6e8910-8864-4911-a988-e74e934fb58b","post_id":"967","created_at":"2026-06-03T12:40:53.000Z","updated_at":null}],"comments":[{"id":643,"userId":"1a6e8910-8864-4911-a988-e74e934fb58b","postId":"967","comment":"fsfsf","createdAt":"2026-06-03T07:40:46.000Z","updatedAt":"2026-06-03T07:40:46.000Z","commenterName":"ali khan","commenterProfilePic":"profile_pictures/profile_1a6e8910-8864-4911-a988-e74e934fb58b_1780379975549.jpg","commenterIsVerified":false}],"relevance_score":0.384,"meta":{"type":"post","deepLink":"doctak://post/967","webUrl":"https://doctak.net/posts/967"}},{"id":962,"user_id":"0a1722c6-ada9-485e-b507-d986bf5430a3","account_type":"business","source_account_id":"2afd8516-d5bc-4c7c-87d3-524246621132","organization_id":"2afd8516-d5bc-4c7c-87d3-524246621132","title":null,"body":"hi how are you","lat":null,"lng":null,"country":null,"image":null,"created_at":"2026-06-02T07:32:24.000Z","updated_at":"2026-06-02T07:32:24.000Z","background_color":"#FFFFFF","feelings":null,"tagging":null,"promoted":false,"is_promoted":false,"is_sponsored":false,"privacy":"public","is_shared":false,"shared_post_id":null,"clicks":0,"views":11,"is_comment_enable":true,"post_type":"text","status":"active","user":{"id":"0a1722c6-ada9-485e-b507-d986bf5430a3","name":"Adnan Khalil","profile_pic":"profile_pictures/profile_0a1722c6-ada9-485e-b507-d986bf5430a3_1780560375689.jpg","is_verified":true},"media":[],"likes":[],"comments":[],"relevance_score":0.433,"meta":{"type":"post","deepLink":"doctak://post/962","webUrl":"https://doctak.net/posts/962"}},{"id":958,"user_id":"1a6e8910-8864-4911-a988-e74e934fb58b","account_type":"personal","source_account_id":"1a6e8910-8864-4911-a988-e74e934fb58b","organization_id":null,"title":null,"body":"","lat":null,"lng":null,"country":null,"image":null,"created_at":"2026-06-02T01:44:48.000Z","updated_at":"2026-06-02T07:21:33.000Z","background_color":"#FFFFFF","feelings":null,"tagging":null,"promoted":false,"is_promoted":false,"is_sponsored":false,"privacy":"public","is_shared":false,"shared_post_id":null,"clicks":0,"views":73,"is_comment_enable":true,"post_type":"photo","status":"active","user":{"id":"1a6e8910-8864-4911-a988-e74e934fb58b","name":"ali khan","profile_pic":"profile_pictures/profile_1a6e8910-8864-4911-a988-e74e934fb58b_1780379975549.jpg","is_verified":false},"media":[{"id":199,"post_id":"958","media_type":"image","media_path":"posts/1780382686611-199102d7-b254-4558-9c6e-1e1019e887f0.jpg","original_filename":"480636548_4008643652791356_8211890245061752423_n.jpg","file_size":86679,"mime_type":"image/jpeg","created_at":"2026-06-02T01:44:48.000Z","updated_at":"2026-06-02T01:44:48.000Z","user_id":null,"upload_type":null,"status":null}],"likes":[{"id":2044,"user_id":"1a6e8910-8864-4911-a988-e74e934fb58b","post_id":"958","created_at":"2026-06-04T10:53:40.000Z","updated_at":null}],"comments":[{"id":639,"userId":"1a6e8910-8864-4911-a988-e74e934fb58b","postId":"958","comment":"hhhh","createdAt":"2026-06-02T01:45:15.000Z","updatedAt":"2026-06-02T01:45:15.000Z","commenterName":"ali khan","commenterProfilePic":"profile_pictures/profile_1a6e8910-8864-4911-a988-e74e934fb58b_1780379975549.jpg","commenterIsVerified":false},{"id":640,"userId":"1a6e8910-8864-4911-a988-e74e934fb58b","postId":"958","comment":"sgfg","createdAt":"2026-06-02T01:45:21.000Z","updatedAt":"2026-06-02T01:45:21.000Z","commenterName":"ali khan","commenterProfilePic":"profile_pictures/profile_1a6e8910-8864-4911-a988-e74e934fb58b_1780379975549.jpg","commenterIsVerified":false},{"id":650,"userId":"1a6e8910-8864-4911-a988-e74e934fb58b","postId":"958","comment":"hjkhkj","createdAt":"2026-06-04T05:53:45.000Z","updatedAt":"2026-06-04T05:53:45.000Z","commenterName":"ali khan","commenterProfilePic":"profile_pictures/profile_1a6e8910-8864-4911-a988-e74e934fb58b_1780379975549.jpg","commenterIsVerified":false}],"relevance_score":0.366,"meta":{"type":"post","deepLink":"doctak://post/958","webUrl":"https://doctak.net/posts/958"}},{"id":954,"user_id":"0a1722c6-ada9-485e-b507-d986bf5430a3","account_type":"personal","source_account_id":"0a1722c6-ada9-485e-b507-d986bf5430a3","organization_id":null,"title":"Which CME formats actually help you retain information? · Seed 2026-05-24 18-27-21","body":"Select every format that leads to better real-world recall.","lat":null,"lng":null,"country":null,"image":null,"created_at":"2026-05-24T13:27:21.000Z","updated_at":"2026-05-24T13:27:21.000Z","background_color":"#FFFFFF","feelings":null,"tagging":"#poll #engagement","promoted":false,"is_promoted":false,"is_sponsored":false,"privacy":"public","is_shared":false,"shared_post_id":null,"clicks":0,"views":98,"is_comment_enable":true,"post_type":"poll","status":"active","user":{"id":"0a1722c6-ada9-485e-b507-d986bf5430a3","name":"Adnan Khalil","profile_pic":"profile_pictures/profile_0a1722c6-ada9-485e-b507-d986bf5430a3_1780560375689.jpg","is_verified":true},"media":[],"likes":[{"id":1937,"user_id":"0a1722c6-ada9-485e-b507-d986bf5430a3","post_id":"954","created_at":"2026-06-01T11:55:11.000Z","updated_at":null}],"comments":[{"id":634,"userId":"0a1722c6-ada9-485e-b507-d986bf5430a3","postId":"954","comment":"jin","createdAt":"2026-06-01T06:49:26.000Z","updatedAt":"2026-06-01T06:49:26.000Z","commenterName":"Adnan Khalil","commenterProfilePic":"profile_pictures/profile_0a1722c6-ada9-485e-b507-d986bf5430a3_1780560375689.jpg","commenterIsVerified":true},{"id":635,"userId":"0a1722c6-ada9-485e-b507-d986bf5430a3","postId":"954","comment":"ji","createdAt":"2026-06-01T11:49:31.000Z","updatedAt":"2026-06-01T11:49:31.000Z","commenterName":"Adnan Khalil","commenterProfilePic":"profile_pictures/profile_0a1722c6-ada9-485e-b507-d986bf5430a3_1780560375689.jpg","commenterIsVerified":true}],"relevance_score":0.403,"meta":{"type":"post","deepLink":"doctak://post/954","webUrl":"https://doctak.net/posts/954"}},{"id":960,"user_id":"1a6e8910-8864-4911-a988-e74e934fb58b","account_type":"personal","source_account_id":"1a6e8910-8864-4911-a988-e74e934fb58b","organization_id":null,"title":null,"body":"","lat":null,"lng":null,"country":null,"image":null,"created_at":"2026-06-02T02:23:38.000Z","updated_at":"2026-06-02T02:23:38.000Z","background_color":"#FFFFFF","feelings":null,"tagging":null,"promoted":false,"is_promoted":false,"is_sponsored":false,"privacy":"public","is_shared":false,"shared_post_id":null,"clicks":0,"views":51,"is_comment_enable":true,"post_type":"photo","status":"active","user":{"id":"1a6e8910-8864-4911-a988-e74e934fb58b","name":"ali khan","profile_pic":"profile_pictures/profile_1a6e8910-8864-4911-a988-e74e934fb58b_1780379975549.jpg","is_verified":false},"media":[{"id":201,"post_id":"960","media_type":"image","media_path":"posts/1780385017527-6ea97571-b10a-4bfe-be73-6b559031ef1b.png","original_filename":"Gemini_Generated_Image_t4213ut4213ut421.png","file_size":7351534,"mime_type":"image/png","created_at":"2026-06-02T02:23:38.000Z","updated_at":"2026-06-02T02:23:38.000Z","user_id":null,"upload_type":null,"status":null},{"id":202,"post_id":"960","media_type":"image","media_path":"posts/1780385018265-e3707e08-3ed3-4167-8590-cba3be5331bc.png","original_filename":"Gemini_Generated_Image_cgv78bcgv78bcgv7.png","file_size":1798955,"mime_type":"image/png","created_at":"2026-06-02T02:23:38.000Z","updated_at":"2026-06-02T02:23:38.000Z","user_id":null,"upload_type":null,"status":null}],"likes":[{"id":2040,"user_id":"1a6e8910-8864-4911-a988-e74e934fb58b","post_id":"960","created_at":"2026-06-04T10:38:36.000Z","updated_at":null}],"comments":[{"id":649,"userId":"1a6e8910-8864-4911-a988-e74e934fb58b","postId":"960","comment":"vf","createdAt":"2026-06-04T05:26:32.000Z","updatedAt":"2026-06-04T05:26:32.000Z","commenterName":"ali khan","commenterProfilePic":"profile_pictures/profile_1a6e8910-8864-4911-a988-e74e934fb58b_1780379975549.jpg","commenterIsVerified":false},{"id":651,"userId":"1a6e8910-8864-4911-a988-e74e934fb58b","postId":"960","comment":"hkhh","createdAt":"2026-06-04T05:53:54.000Z","updatedAt":"2026-06-04T05:53:54.000Z","commenterName":"ali khan","commenterProfilePic":"profile_pictures/profile_1a6e8910-8864-4911-a988-e74e934fb58b_1780379975549.jpg","commenterIsVerified":false}],"relevance_score":0.347,"meta":{"type":"post","deepLink":"doctak://post/960","webUrl":"https://doctak.net/posts/960"}},{"id":937,"user_id":"0a1722c6-ada9-485e-b507-d986bf5430a3","account_type":"business","source_account_id":"2afd8516-d5bc-4c7c-87d3-524246621132","organization_id":"2afd8516-d5bc-4c7c-87d3-524246621132","title":"Clinical update 2 · Seed 2026-05-24 18-07-55","body":"We are piloting an after-hours triage escalation sheet for faster ICU referrals across partner hospitals.","lat":null,"lng":null,"country":null,"image":null,"created_at":"2026-05-24T13:07:55.000Z","updated_at":"2026-05-24T13:07:55.000Z","background_color":"#FFFFFF","feelings":null,"tagging":"#workflow #doctak","promoted":false,"is_promoted":false,"is_sponsored":false,"privacy":"public","is_shared":false,"shared_post_id":null,"clicks":0,"views":13,"is_comment_enable":true,"post_type":"text","status":"active","user":{"id":"0a1722c6-ada9-485e-b507-d986bf5430a3","name":"Adnan Khalil","profile_pic":"profile_pictures/profile_0a1722c6-ada9-485e-b507-d986bf5430a3_1780560375689.jpg","is_verified":true},"media":[],"likes":[],"comments":[{"id":646,"userId":"0a1722c6-ada9-485e-b507-d986bf5430a3","postId":"937","comment":"hello","createdAt":"2026-06-03T08:52:06.000Z","updatedAt":"2026-06-03T08:52:06.000Z","commenterName":"Adnan Khalil","commenterProfilePic":"profile_pictures/profile_0a1722c6-ada9-485e-b507-d986bf5430a3_1780560375689.jpg","commenterIsVerified":true},{"id":647,"userId":"0a1722c6-ada9-485e-b507-d986bf5430a3","postId":"937","comment":"hi","createdAt":"2026-06-03T13:52:12.000Z","updatedAt":"2026-06-03T13:52:12.000Z","commenterName":"Adnan Khalil","commenterProfilePic":"profile_pictures/profile_0a1722c6-ada9-485e-b507-d986bf5430a3_1780560375689.jpg","commenterIsVerified":true}],"relevance_score":0.39,"meta":{"type":"post","deepLink":"doctak://post/937","webUrl":"https://doctak.net/posts/937"}},{"id":963,"user_id":"1a6e8910-8864-4911-a988-e74e934fb58b","account_type":"business","source_account_id":"60b68783-94e8-437c-a29a-9534d091b11a","organization_id":"60b68783-94e8-437c-a29a-9534d091b11a","title":"where are you","body":null,"lat":null,"lng":null,"country":null,"image":null,"created_at":"2026-06-03T06:32:39.000Z","updated_at":"2026-06-03T06:32:39.000Z","background_color":"#FFFFFF","feelings":null,"tagging":null,"promoted":false,"is_promoted":false,"is_sponsored":false,"privacy":"public","is_shared":false,"shared_post_id":null,"clicks":0,"views":12,"is_comment_enable":true,"post_type":"poll","status":"active","user":{"id":"1a6e8910-8864-4911-a988-e74e934fb58b","name":"ali khan","profile_pic":"profile_pictures/profile_1a6e8910-8864-4911-a988-e74e934fb58b_1780379975549.jpg","is_verified":false},"media":[],"likes":[{"id":2035,"user_id":"0a1722c6-ada9-485e-b507-d986bf5430a3","post_id":"963","created_at":"2026-06-04T10:19:43.000Z","updated_at":null}],"comments":[],"relevance_score":0.34,"meta":{"type":"post","deepLink":"doctak://post/963","webUrl":"https://doctak.net/posts/963"}}],"first_page_url":"http://localhost:3000/api/v1/posts?page=1","from":1,"last_page":4,"last_page_url":"http://localhost:3000/api/v1/posts?page=4","links":[{"url":null,"label":"&laquo; Previous","active":false},{"url":"http://localhost:3000/api/v1/posts?page=1","label":"1","active":true},{"url":"http://localhost:3000/api/v1/posts?page=2","label":"2","active":false},{"url":"http://localhost:3000/api/v1/posts?page=3","label":"3","active":false},{"url":"http://localhost:3000/api/v1/posts?page=4","label":"4","active":false},{"url":"http://localhost:3000/api/v1/posts?page=2","label":"Next &raquo;","active":false}],"next_page_url":"http://localhost:3000/api/v1/posts?page=2","path":"http://localhost:3000/api/v1/posts","per_page":10,"prev_page_url":null,"to":10,"total":38}}